2020-10-30 16:00:04.011 +00:00 [Warning] Storing keys in a directory '"/home/bitwarden/.aspnet/DataProtection-Keys"' that may not be persisted outside of the container. Protected data will be unavailable when container is destroyed.
2020-10-30 16:00:04.063 +00:00 [Warning] No XML encryptor configured. Key {4db706e1-5236-406a-90f5-102d3d66da90} may be persisted to storage in unencrypted form.
2020-10-30 16:01:56.955 +00:00 [Warning] Stopping service.
2020-10-30 16:02:12.572 +00:00 [Warning] Storing keys in a directory '"/home/bitwarden/.aspnet/DataProtection-Keys"' that may not be persisted outside of the container. Protected data will be unavailable when container is destroyed.
2020-10-30 16:02:12.620 +00:00 [Warning] No XML encryptor configured. Key {0f57838b-6206-4bcd-a012-214f592f3234} may be persisted to storage in unencrypted form.
2020-10-30 19:03:12.658 +00:00 [Warning] Stopping service.
